…
顧客州別分布：
  總州數: 27

各州訂單數分布：
# A tibble: 27 × 3
   customer_state     n percentage
   <chr>          <int>      <dbl>
 1 SP             40332      42.0 
 2 RJ             12229      12.7 
 3 MG             11307      11.8 
 4 RS              5334       5.56
 5 PR              4905       5.11
 6 SC              3522       3.67
 7 BA              3230       3.37
 8 DF              2079       2.17
 9 ES              1972       2.05
10 GO              1944       2.03
# ℹ 17 more rows
…
賣家州別分布（primary_seller_state）：
  總州數: 22
  有效記錄數: 95973 (100.00%)

各州賣家訂單數分布：
# A tibble: 22 × 3
   primary_seller_state     n percentage
   <chr>                <int>      <dbl>
 1 SP                   68071      70.9 
 2 MG                    7621       7.94
 3 PR                    7394       7.7 
 4 RJ                    4148       4.32
 5 SC                    3532       3.68
 6 RS                    1930       2.01
 7 DF                     804       0.84
 8 BA                     546       0.57
 9 GO                     448       0.47
10 PE                     399       0.42
# ℹ 12 more rows
…
